<svg width="13" height="10" viewBox="0 0 13 10" fill="none" xmlns="http://www.w3.org/2000/svg">
<path d="M-5.96244e-08 5L5.25 9.33013L5.25 0.669873L-5.96244e-08 5Z" fill="#0B3C59"/>
<line x1="5" y1="5" x2="13" y2="5" stroke="#0B3C59" stroke-width="2"/>
</svg>
