<svg width="17" height="10" viewBox="0 0 17 10" fill="none" xmlns="http://www.w3.org/2000/svg">
<path d="M17 5L11.75 9.33013L11.75 0.669873L17 5Z" fill="#0B3C59"/>
<line x1="12" y1="5" x2="8.74228e-08" y2="5" stroke="#0B3C59" stroke-width="2"/>
</svg>
