<svg width="13" height="5" viewBox="0 0 13 5" fill="none" xmlns="http://www.w3.org/2000/svg">
<path d="M13 2.5L10.75 4.66506L10.75 0.334936L13 2.5Z" fill="white"/>
<line x1="12" y1="2.5" x2="4.37114e-08" y2="2.5" stroke="white"/>
</svg>
